[
    {
      "_id": 101,
      "AcountType": "checking",
      "AccountID": 52520,
      "TotalOrderNum": 10,
      "DateCreated": "3/18/2019"
    },

    {
      "_id": 202,
      "AcountType": "savings",
      "AccountID": 56310,
      "TotalOrderNum": 1,
      "DateCreated": "4/9/2019"
    },

    {
      "_id": 302,
      "AcountType": "checking",
      "AccountID": 53314,
      "TotalOrderNum": 74,
      "DateCreated": "1/1/2019"
    }
  ]