[
    {
      "_id": 1001,
      "orderID": 900,
      "itemType": "Entertainment and Electronics",
      "dateOrdered": "2019-3-18",
      "priceRange": 10.00
    },
    {
      "_id": 1002,
      "orderID": 600,
      "productKey": "Clothing",
      "dateOrdered": "2019-4-18",
      "priceRange": 12.00
    },
    {
      "_id": 1003,
      "orderID": 750,
      "productKey": "Home and Living",
      "dateOrdered": "2019-5-18",
      "priceRange": 20.00
    },
    {
      "_id": 1004,
      "orderID": 500,
      "productKey": "Grocery and Food",
      "dateOrdered": "2019-6-18",
      "priceRange": 22.00
    }
  ]